# ALYA Lagrangian postprocess  
#
# HEADER
# T , Column :   1
# ILAGR , Column :   2
# ITYPE , Column :   3
# EXIST , Column :   4
# COORX , Column :   5
# COORY , Column :   6
# COORZ , Column :   7
# VELOX , Column :   8
# VELOY , Column :   9
# VELOZ , Column :  10
# DTK , Column :  11
# CD , Column :  12
# TINJE , Column :  13
# TEMPK , Column :  14
# MASSK , Column :  15
# DIAMK , Column :  16
# TEMPF , Column :  17
# YVAPF , Column :  18
# BM , Column :  19
#               T            ILAGR            ITYPE            EXIST            COORX            COORY            COORZ            VELOX            VELOY            VELOZ              DTK               CD            TINJE            TEMPK            MASSK            DIAMK            TEMPF            YVAPF               BM            
  0.00000000E+000               25                1               -5  0.00000000E+000  4.00000000E-003  4.00000000E-003  1.00000000E+000  0.00000000E+000  0.00000000E+000  4.45289907E-006  0.00000000E+000  0.00000000E+000  2.98150000E+002  4.12227616E-010  1.00000000E-004  0.00000000E+000  0.00000000E+000  0.00000000E+000
  0.00000000E+000               24                1               -5  0.00000000E+000  4.00000000E-003  2.00000000E-003  1.00000000E+000  0.00000000E+000  0.00000000E+000  4.45289907E-006  0.00000000E+000  0.00000000E+000  2.98150000E+002  4.12227616E-010  1.00000000E-004  0.00000000E+000  0.00000000E+000  0.00000000E+000
  0.00000000E+000               23                1               -5  0.00000000E+000  4.00000000E-003  0.00000000E+000  1.00000000E+000  0.00000000E+000  0.00000000E+000  4.45289907E-006  0.00000000E+000  0.00000000E+000  2.98150000E+002  4.12227616E-010  1.00000000E-004  0.00000000E+000  0.00000000E+000  0.00000000E+000
  0.00000000E+000               19                1               -5  0.00000000E+000  2.00000000E-003  2.00000000E-003  1.00000000E+000  0.00000000E+000  0.00000000E+000  4.45289907E-006  0.00000000E+000  0.00000000E+000  2.98150000E+002  4.12227616E-010  1.00000000E-004  0.00000000E+000  0.00000000E+000  0.00000000E+000
  0.00000000E+000               20                1               -5  0.00000000E+000  2.00000000E-003  4.00000000E-003  1.00000000E+000  0.00000000E+000  0.00000000E+000  4.45289907E-006  0.00000000E+000  0.00000000E+000  2.98150000E+002  4.12227616E-010  1.00000000E-004  0.00000000E+000  0.00000000E+000  0.00000000E+000
  0.00000000E+000               18                1               -5  0.00000000E+000  2.00000000E-003  0.00000000E+000  1.00000000E+000  0.00000000E+000  0.00000000E+000  4.45289907E-006  0.00000000E+000  0.00000000E+000  2.98150000E+002  4.12227616E-010  1.00000000E-004  0.00000000E+000  0.00000000E+000  0.00000000E+000
  0.00000000E+000               16                1               -5  0.00000000E+000  2.00000000E-003 -4.00000000E-003  1.00000000E+000  0.00000000E+000  0.00000000E+000  4.45289907E-006  0.00000000E+000  0.00000000E+000  2.98150000E+002  4.12227616E-010  1.00000000E-004  0.00000000E+000  0.00000000E+000  0.00000000E+000
  0.00000000E+000               17                1               -5  0.00000000E+000  2.00000000E-003 -2.00000000E-003  1.00000000E+000  0.00000000E+000  0.00000000E+000  4.45289907E-006  0.00000000E+000  0.00000000E+000  2.98150000E+002  4.12227616E-010  1.00000000E-004  0.00000000E+000  0.00000000E+000  0.00000000E+000
  0.00000000E+000               21                1               -5  0.00000000E+000  4.00000000E-003 -4.00000000E-003  1.00000000E+000  0.00000000E+000  0.00000000E+000  4.45289907E-006  0.00000000E+000  0.00000000E+000  2.98150000E+002  4.12227616E-010  1.00000000E-004  0.00000000E+000  0.00000000E+000  0.00000000E+000
  0.00000000E+000               22                1               -5  0.00000000E+000  4.00000000E-003 -2.00000000E-003  1.00000000E+000  0.00000000E+000  0.00000000E+000  4.45289907E-006  0.00000000E+000  0.00000000E+000  2.98150000E+002  4.12227616E-010  1.00000000E-004  0.00000000E+000  0.00000000E+000  0.00000000E+000
  0.00000000E+000                6                1               -5  0.00000000E+000 -2.00000000E-003 -4.00000000E-003  1.00000000E+000  0.00000000E+000  0.00000000E+000  4.45289907E-006  0.00000000E+000  0.00000000E+000  2.98150000E+002  4.12227616E-010  1.00000000E-004  0.00000000E+000  0.00000000E+000  0.00000000E+000
  0.00000000E+000               14                1               -5  0.00000000E+000  0.00000000E+000  2.00000000E-003  1.00000000E+000  0.00000000E+000  0.00000000E+000  4.45289907E-006  0.00000000E+000  0.00000000E+000  2.98150000E+002  4.12227616E-010  1.00000000E-004  0.00000000E+000  0.00000000E+000  0.00000000E+000
  0.00000000E+000               13                1               -5  0.00000000E+000  0.00000000E+000  0.00000000E+000  1.00000000E+000  0.00000000E+000  0.00000000E+000  4.45289907E-006  0.00000000E+000  0.00000000E+000  2.98150000E+002  4.12227616E-010  1.00000000E-004  0.00000000E+000  0.00000000E+000  0.00000000E+000
  0.00000000E+000               15                1               -5  0.00000000E+000  0.00000000E+000  4.00000000E-003  1.00000000E+000  0.00000000E+000  0.00000000E+000  4.45289907E-006  0.00000000E+000  0.00000000E+000  2.98150000E+002  4.12227616E-010  1.00000000E-004  0.00000000E+000  0.00000000E+000  0.00000000E+000
  0.00000000E+000               11                1               -5  0.00000000E+000  0.00000000E+000 -4.00000000E-003  1.00000000E+000  0.00000000E+000  0.00000000E+000  4.45289907E-006  0.00000000E+000  0.00000000E+000  2.98150000E+002  4.12227616E-010  1.00000000E-004  0.00000000E+000  0.00000000E+000  0.00000000E+000
  0.00000000E+000               12                1               -5  0.00000000E+000  0.00000000E+000 -2.00000000E-003  1.00000000E+000  0.00000000E+000  0.00000000E+000  4.45289907E-006  0.00000000E+000  0.00000000E+000  2.98150000E+002  4.12227616E-010  1.00000000E-004  0.00000000E+000  0.00000000E+000  0.00000000E+000
  0.00000000E+000                9                1               -5  0.00000000E+000 -2.00000000E-003  2.00000000E-003  1.00000000E+000  0.00000000E+000  0.00000000E+000  4.45289907E-006  0.00000000E+000  0.00000000E+000  2.98150000E+002  4.12227616E-010  1.00000000E-004  0.00000000E+000  0.00000000E+000  0.00000000E+000
  0.00000000E+000               10                1               -5  0.00000000E+000 -2.00000000E-003  4.00000000E-003  1.00000000E+000  0.00000000E+000  0.00000000E+000  4.45289907E-006  0.00000000E+000  0.00000000E+000  2.98150000E+002  4.12227616E-010  1.00000000E-004  0.00000000E+000  0.00000000E+000  0.00000000E+000
  0.00000000E+000                4                1               -5  0.00000000E+000 -4.00000000E-003  2.00000000E-003  1.00000000E+000  0.00000000E+000  0.00000000E+000  4.45289907E-006  0.00000000E+000  0.00000000E+000  2.98150000E+002  4.12227616E-010  1.00000000E-004  0.00000000E+000  0.00000000E+000  0.00000000E+000
  0.00000000E+000                3                1               -5  0.00000000E+000 -4.00000000E-003  0.00000000E+000  1.00000000E+000  0.00000000E+000  0.00000000E+000  4.45289907E-006  0.00000000E+000  0.00000000E+000  2.98150000E+002  4.12227616E-010  1.00000000E-004  0.00000000E+000  0.00000000E+000  0.00000000E+000
  0.00000000E+000                5                1               -5  0.00000000E+000 -4.00000000E-003  4.00000000E-003  1.00000000E+000  0.00000000E+000  0.00000000E+000  4.45289907E-006  0.00000000E+000  0.00000000E+000  2.98150000E+002  4.12227616E-010  1.00000000E-004  0.00000000E+000  0.00000000E+000  0.00000000E+000
  0.00000000E+000                1                1               -5  0.00000000E+000 -4.00000000E-003 -4.00000000E-003  1.00000000E+000  0.00000000E+000  0.00000000E+000  4.45289907E-006  0.00000000E+000  0.00000000E+000  2.98150000E+002  4.12227616E-010  1.00000000E-004  0.00000000E+000  0.00000000E+000  0.00000000E+000
  0.00000000E+000                2                1               -5  0.00000000E+000 -4.00000000E-003 -2.00000000E-003  1.00000000E+000  0.00000000E+000  0.00000000E+000  4.45289907E-006  0.00000000E+000  0.00000000E+000  2.98150000E+002  4.12227616E-010  1.00000000E-004  0.00000000E+000  0.00000000E+000  0.00000000E+000
  0.00000000E+000                8                1               -5  0.00000000E+000 -2.00000000E-003  0.00000000E+000  1.00000000E+000  0.00000000E+000  0.00000000E+000  4.45289907E-006  0.00000000E+000  0.00000000E+000  2.98150000E+002  4.12227616E-010  1.00000000E-004  0.00000000E+000  0.00000000E+000  0.00000000E+000
  0.00000000E+000                7                1               -5  0.00000000E+000 -2.00000000E-003 -2.00000000E-003  1.00000000E+000  0.00000000E+000  0.00000000E+000  4.45289907E-006  0.00000000E+000  0.00000000E+000  2.98150000E+002  4.12227616E-010  1.00000000E-004  0.00000000E+000  0.00000000E+000  0.00000000E+000
  1.11278487E-004               25                1               -1  1.11014545E-004  3.99999981E-003  3.99999990E-003  9.95397361E-001 -5.14563613E-006 -2.80918623E-006  4.45325388E-006  2.31921432E+001  0.00000000E+000  2.99823650E+002  4.11960212E-010  1.00044342E-004  1.03175136E+003  1.80369548E-002  1.31846299E-001
  1.11278487E-004               24                1               -1  1.11010845E-004  3.99999989E-003  1.99999981E-003  9.95276975E-001 -3.07879848E-006 -5.18599032E-006  4.45325388E-006  2.29462504E+001  0.00000000E+000  2.99879851E+002  4.11954363E-010  1.00046091E-004  1.07196410E+003  1.46717937E-002  1.36076232E-001
  1.11278487E-004               23                1               -1  1.11009584E-004  3.99999988E-003 -3.03687520E-013  9.95235533E-001 -3.18961544E-006 -7.01090310E-009  4.45325388E-006  2.28813574E+001  0.00000000E+000  2.99899506E+002  4.11952347E-010  1.00046705E-004  1.08621460E+003  1.35266640E-002  1.37518407E-001
  1.11278487E-004               19                1               -1  1.11008521E-004  1.99999973E-003  1.99999987E-003  9.95195724E-001 -7.30433717E-006 -3.67433766E-006  4.45325388E-006  2.28405221E+001  0.00000000E+000  2.99921654E+002  4.11950083E-010  1.00047398E-004  1.10252253E+003  1.22418398E-002  1.39133259E-001
  1.11278487E-004               20                1               -1  1.11010832E-004  1.99999968E-003  3.99999996E-003  9.95276771E-001 -8.55496116E-006 -1.25144939E-006  4.45325388E-006  2.29471993E+001  0.00000000E+000  2.99879929E+002  4.11954346E-010  1.00046093E-004  1.07196164E+003  1.46720691E-002  1.36076675E-001
  1.11278487E-004               18                1               -1  1.11007761E-004  1.99999975E-003 -4.00354808E-014  9.95168595E-001 -6.80228711E-006 -4.84024821E-010  4.45325388E-006  2.28142736E+001  0.00000000E+000  2.99936022E+002  4.11948612E-010  1.00047847E-004  1.11305970E+003  1.14263550E-002  1.40163151E-001
  1.11278487E-004               16                1               -1  1.11010832E-004  1.99999968E-003 -3.99999996E-003  9.95276771E-001 -8.54746738E-006  1.24839954E-006  4.45325388E-006  2.29472003E+001  0.00000000E+000  2.99879929E+002  4.11954346E-010  1.00046093E-004  1.07196163E+003  1.46720693E-002  1.36076675E-001
  1.11278487E-004               17                1               -1  1.11008521E-004  1.99999973E-003 -1.99999987E-003  9.95195719E-001 -7.30066986E-006  3.67036137E-006  4.45325388E-006  2.28405107E+001  0.00000000E+000  2.99921654E+002  4.11950083E-010  1.00047398E-004  1.10252256E+003  1.22418389E-002  1.39133265E-001
  1.11278487E-004               21                1               -1  1.11014545E-004  3.99999981E-003 -3.99999990E-003  9.95397358E-001 -5.13848230E-006  2.80765022E-006  4.45325388E-006  2.31921330E+001  0.00000000E+000  2.99823650E+002  4.11960212E-010  1.00044342E-004  1.03175138E+003  1.80369545E-002  1.31846302E-001
  1.11278487E-004               22                1               -1  1.11010845E-004  3.99999989E-003 -1.99999981E-003  9.95276976E-001 -3.07052018E-006  5.17990414E-006  4.45325388E-006  2.29462577E+001  0.00000000E+000  2.99879851E+002  4.11954363E-010  1.00046091E-004  1.07196412E+003  1.46717924E-002  1.36076234E-001
  1.11278487E-004                6                1               -1  1.11010827E-004 -2.00000005E-003 -3.99999995E-003  9.95276721E-001 -6.57844620E-007  1.50140031E-006  4.45325388E-006  2.29479974E+001  0.00000000E+000  2.99879940E+002  4.11954344E-010  1.00046093E-004  1.07196096E+003  1.46721150E-002  1.36076731E-001
  1.11278487E-004               14                1               -1  1.11007758E-004 -2.03752101E-010  1.99999991E-003  9.95168534E-001 -5.20535954E-006 -2.67976779E-006  4.45325388E-006  2.28146220E+001  0.00000000E+000  2.99936062E+002  4.11948603E-010  1.00047848E-004  1.11305687E+003  1.14265553E-002  1.40163305E-001
  1.11278487E-004               13                1               -1  1.11007109E-004 -1.85007965E-010  1.01073280E-015  9.95145244E-001 -4.74721811E-006 -6.90387797E-010  4.45325388E-006  2.27989464E+001  0.00000000E+000  2.99948699E+002  4.11947285E-010  1.00048241E-004  1.12237308E+003  1.07221889E-002  1.41053721E-001
  1.11278487E-004               15                1               -1  1.11009555E-004 -2.00279909E-010  3.99999994E-003  9.95235009E-001 -5.06053157E-006 -1.64229815E-006  4.45325388E-006  2.28814367E+001  0.00000000E+000  2.99899631E+002  4.11952321E-010  1.00046708E-004  1.08621065E+003  1.35270854E-002  1.37519134E-001
  1.11278487E-004               11                1               -1  1.11009555E-004 -2.00105164E-010 -3.99999994E-003  9.95235005E-001 -5.05556864E-006  1.64135638E-006  4.45325388E-006  2.28814266E+001  0.00000000E+000  2.99899631E+002  4.11952320E-010  1.00046708E-004  1.08621067E+003  1.35270852E-002  1.37519138E-001
  1.11278487E-004               12                1               -1  1.11007758E-004 -2.03720532E-010 -1.99999991E-003  9.95168536E-001 -5.20470530E-006  2.68277171E-006  4.45325388E-006  2.28146252E+001  0.00000000E+000  2.99936062E+002  4.11948603E-010  1.00047848E-004  1.11305686E+003  1.14265561E-002  1.40163305E-001
  1.11278487E-004                9                1               -1  1.11008530E-004 -2.00000005E-003  1.99999992E-003  9.95195952E-001 -8.75364583E-007 -2.45911909E-006  4.45325388E-006  2.28423404E+001  0.00000000E+000  2.99921647E+002  4.11950085E-010  1.00047398E-004  1.10252128E+003  1.22418824E-002  1.39133137E-001
  1.11278487E-004               10                1               -1  1.11010828E-004 -2.00000005E-003  3.99999995E-003  9.95276724E-001 -6.61335923E-007 -1.49209572E-006  4.45325388E-006  2.29480038E+001  0.00000000E+000  2.99879940E+002  4.11954344E-010  1.00046093E-004  1.07196094E+003  1.46721163E-002  1.36076729E-001
  1.11278487E-004                4                1               -1  1.11010844E-004 -4.00000002E-003  1.99999988E-003  9.95277050E-001 -7.20631891E-008 -3.50611177E-006  4.45325388E-006  2.29476739E+001  0.00000000E+000  2.99879860E+002  4.11954362E-010  1.00046091E-004  1.07196631E+003  1.46716452E-002  1.36076490E-001
  1.11278487E-004                3                1               -1  1.11009602E-004 -4.00000005E-003  4.65113960E-015  9.95235963E-001 -8.59626947E-007  1.67891406E-010  4.45325388E-006  2.28828183E+001  0.00000000E+000  2.99899465E+002  4.11952356E-010  1.00046704E-004  1.08621439E+003  1.35265862E-002  1.37518087E-001
  1.11278487E-004                5                1               -1  1.11014561E-004 -4.00000004E-003  4.00000000E-003  9.95397786E-001 -6.70054408E-007 -2.74673905E-007  4.45325388E-006  2.31962189E+001  0.00000000E+000  2.99823661E+002  4.11960209E-010  1.00044342E-004  1.03174627E+003  1.80372210E-002  1.31846078E-001
  1.11278487E-004                1                1               -1  1.11014562E-004 -4.00000004E-003 -4.00000000E-003  9.95397789E-001 -6.66425394E-007  2.85540852E-007  4.45325388E-006  2.31962178E+001  0.00000000E+000  2.99823660E+002  4.11960209E-010  1.00044342E-004  1.03174627E+003  1.80372206E-002  1.31846078E-001
  1.11278487E-004                2                1               -1  1.11010844E-004 -4.00000002E-003 -1.99999988E-003  9.95277053E-001 -7.32483541E-008  3.50611806E-006  4.45325388E-006  2.29476770E+001  0.00000000E+000  2.99879860E+002  4.11954362E-010  1.00046091E-004  1.07196627E+003  1.46716472E-002  1.36076487E-001
  1.11278487E-004                8                1               -1  1.11007728E-004 -2.00000007E-003 -2.22363774E-014  9.95167903E-001 -1.32363187E-006 -5.99434709E-010  4.45325388E-006  2.28126394E+001  0.00000000E+000  2.99936102E+002  4.11948596E-010  1.00047849E-004  1.11306400E+003  1.14262061E-002  1.40164110E-001
  1.11278487E-004                7                1               -1  1.11008530E-004 -2.00000005E-003 -1.99999992E-003  9.95195951E-001 -8.76625687E-007  2.46401768E-006  4.45325388E-006  2.28423328E+001  0.00000000E+000  2.99921647E+002  4.11950085E-010  1.00047398E-004  1.10252126E+003  1.22418835E-002  1.39133137E-001
  2.22610108E-004               25                1               -1  2.21598609E-004  3.99999885E-003  3.99999935E-003  9.91098087E-001 -1.18331641E-005 -7.00013587E-006  4.45326516E-006  2.08742986E+001  0.00000000E+000  3.01343517E+002  4.11676313E-010  1.00081625E-004  1.04962417E+003  1.80380522E-002  1.46996963E-001
  2.22610108E-004               24                1               -1  2.21560112E-004  3.99999928E-003  1.99999877E-003  9.90589392E-001 -7.53526418E-006 -1.29332920E-005  4.45326516E-006  2.05646080E+001  0.00000000E+000  3.01532750E+002  4.11652878E-010  1.00087255E-004  1.08987070E+003  1.45010279E-002  1.52874265E-001
  2.22610108E-004               23                1               -1  2.21546498E-004  3.99999927E-003 -1.51716929E-012  9.90406564E-001 -7.45435746E-006 -1.41647687E-008  4.45326516E-006  2.04668313E+001  0.00000000E+000  3.01601499E+002  4.11644628E-010  1.00089323E-004  1.10457203E+003  1.32651005E-002  1.54957171E-001
  2.22610108E-004               19                1               -1  2.21532165E-004  1.99999826E-003  1.99999908E-003  9.90203421E-001 -1.80318242E-005 -9.80631701E-006  4.45326516E-006  2.03604274E+001  0.00000000E+000  3.01682076E+002  4.11635148E-010  1.00091763E-004  1.12193695E+003  1.18458027E-002  1.57368203E-001
  2.22610108E-004               20                1               -1  2.21560079E-004  1.99999802E-003  3.99999969E-003  9.90589255E-001 -2.04011080E-005 -3.60922846E-006  4.45326516E-006  2.05650636E+001  0.00000000E+000  3.01532825E+002  4.11652860E-010  1.00087256E-004  1.08987266E+003  1.45009753E-002  1.52875129E-001
  2.22610108E-004               18                1               -1  2.21522553E-004  1.99999835E-003 -8.29471988E-014  9.90068465E-001 -1.71559170E-005 -2.94408528E-010  4.45326516E-006  2.02966759E+001  0.00000000E+000  3.01735193E+002  4.11628981E-010  1.00093379E-004  1.13340782E+003  1.09330135E-002  1.58932613E-001
  2.22610108E-004               16                1               -1  2.21560079E-004  1.99999802E-003 -3.99999969E-003  9.90589256E-001 -2.03874797E-005  3.60321000E-006  4.45326516E-006  2.05650660E+001  0.00000000E+000  3.01532825E+002  4.11652860E-010  1.00087256E-004  1.08987264E+003  1.45009765E-002  1.52875126E-001
  2.22610108E-004               17                1               -1  2.21532164E-004  1.99999826E-003 -1.99999908E-003  9.90203411E-001 -1.80212839E-005  9.80013327E-006  4.45326516E-006  2.03604157E+001  0.00000000E+000  3.01682077E+002  4.11635148E-010  1.00091763E-004  1.12193703E+003  1.18457991E-002  1.57368217E-001
  2.22610108E-004               21                1               -1  2.21598608E-004  3.99999885E-003 -3.99999935E-003  9.91098081E-001 -1.18212938E-005  6.99734271E-006  4.45326516E-006  2.08742912E+001  0.00000000E+000  3.01343518E+002  4.11676313E-010  1.00081625E-004  1.04962421E+003  1.80380508E-002  1.46996969E-001
  2.22610108E-004               22                1               -1  2.21560112E-004  3.99999929E-003 -1.99999877E-003  9.90589395E-001 -7.51926331E-006  1.29223736E-005  4.45326516E-006  2.05646167E+001  0.00000000E+000  3.01532750E+002  4.11652878E-010  1.00087255E-004  1.08987070E+003  1.45010280E-002  1.52874264E-001
  2.22610108E-004                6                1               -1  2.21560074E-004 -2.00000005E-003 -3.99999964E-003  9.90589312E-001  3.18158784E-007  3.96564393E-006  4.45326516E-006  2.05655985E+001  0.00000000E+000  3.01532830E+002  4.11652859E-010  1.00087256E-004  1.08987200E+003  1.45009934E-002  1.52875150E-001
  2.22610108E-004               11                1               -1  2.21546395E-004 -1.11837948E-009 -3.99999961E-003  9.90405783E-001 -1.10561253E-005  4.11391252E-006  4.45326516E-006  2.04663031E+001  0.00000000E+000  3.01601633E+002  4.11644596E-010  1.00089325E-004  1.10457616E+003  1.32649795E-002  1.54958758E-001
  2.22610108E-004                1                1               -1  2.21598719E-004 -4.00000010E-003 -3.99999990E-003  9.91099410E-001 -2.27428265E-007  1.82158298E-006  4.45326516E-006  2.08782641E+001  0.00000000E+000  3.01343476E+002  4.11676319E-010  1.00081623E-004  1.04961552E+003  1.80384191E-002  1.46996049E-001
  2.22610108E-004               14                1               -1  2.21522542E-004 -1.16301100E-009  1.99999927E-003  9.90068393E-001 -1.16197504E-005 -7.98614339E-006  4.45326516E-006  2.02967018E+001  0.00000000E+000  3.01735228E+002  4.11628972E-010  1.00093379E-004  1.13340734E+003  1.09330580E-002  1.58932935E-001
  2.22610108E-004               15                1               -1  2.21546396E-004 -1.11950846E-009  3.99999961E-003  9.90405791E-001 -1.10678462E-005 -4.11358369E-006  4.45326516E-006  2.04663110E+001  0.00000000E+000  3.01601633E+002  4.11644597E-010  1.00089325E-004  1.10457611E+003  1.32649816E-002  1.54958748E-001
  2.22610108E-004               12                1               -1  2.21522542E-004 -1.16290456E-009 -1.99999927E-003  9.90068395E-001 -1.16190903E-005  7.99195489E-006  4.45326516E-006  2.02967016E+001  0.00000000E+000  3.01735228E+002  4.11628972E-010  1.00093379E-004  1.13340735E+003  1.09330575E-002  1.58932937E-001
  2.22610108E-004               13                1               -1  2.21514122E-004 -1.06519338E-009 -1.77603127E-013  9.89949080E-001 -1.06977143E-005 -2.35726964E-009  4.45326516E-006  2.02419248E+001  0.00000000E+000  3.01782683E+002  4.11623442E-010  1.00094821E-004  1.14374703E+003  1.01280204E-002  1.60319269E-001
  2.22610108E-004                9                1               -1  2.21532223E-004 -2.00000009E-003  1.99999935E-003  9.90204107E-001 -1.49061884E-007 -7.20600736E-006  4.45326516E-006  2.03620412E+001  0.00000000E+000  3.01682043E+002  4.11635154E-010  1.00091762E-004  1.12193304E+003  1.18459676E-002  1.57367646E-001
  2.22610108E-004               10                1               -1  2.21560074E-004 -2.00000005E-003  3.99999964E-003  9.90589315E-001  3.13205402E-007 -3.94554495E-006  4.45326516E-006  2.05656002E+001  0.00000000E+000  3.01532830E+002  4.11652859E-010  1.00087256E-004  1.08987199E+003  1.45009937E-002  1.52875147E-001
  2.22610108E-004                4                1               -1  2.21560138E-004 -3.99999998E-003  1.99999914E-003  9.90589825E-001  6.87158066E-007 -9.26743415E-006  4.45326516E-006  2.05661667E+001  0.00000000E+000  3.01532746E+002  4.11652880E-010  1.00087255E-004  1.08986945E+003  1.45010511E-002  1.52874182E-001
  2.22610108E-004                3                1               -1  2.21546596E-004 -4.00000015E-003  2.10817814E-014  9.90407621E-001 -1.08622024E-006  1.49280731E-010  4.45326516E-006  2.04691696E+001  0.00000000E+000  3.01601423E+002  4.11644644E-010  1.00089321E-004  1.10456443E+003  1.32654308E-002  1.54955942E-001
  2.22610108E-004                5                1               -1  2.21598718E-004 -4.00000010E-003  3.99999990E-003  9.91099409E-001 -2.37910349E-007 -1.80143471E-006  4.45326516E-006  2.08782733E+001  0.00000000E+000  3.01343476E+002  4.11676319E-010  1.00081623E-004  1.04961547E+003  1.80384216E-002  1.46996045E-001
  2.22610108E-004                2                1               -1  2.21560138E-004 -3.99999998E-003 -1.99999914E-003  9.90589828E-001  6.85463430E-007  9.27052237E-006  4.45326516E-006  2.05661662E+001  0.00000000E+000  3.01532746E+002  4.11652880E-010  1.00087255E-004  1.08986944E+003  1.45010515E-002  1.52874180E-001
  2.22610108E-004                8                1               -1  2.21522404E-004 -2.00000016E-003 -1.46946768E-013  9.90067089E-001 -7.85876783E-007 -1.54719638E-009  4.45326516E-006  2.02948997E+001  0.00000000E+000  3.01735320E+002  4.11628956E-010  1.00093382E-004  1.13341880E+003  1.09324861E-002  1.58934625E-001
  2.22610108E-004                7                1               -1  2.21532223E-004 -2.00000009E-003 -1.99999934E-003  9.90204104E-001 -1.50113419E-007  7.21744621E-006  4.45326516E-006  2.03620349E+001  0.00000000E+000  3.01682043E+002  4.11635154E-010  1.00091762E-004  1.12193304E+003  1.18459677E-002  1.57367647E-001
  3.33941738E-004               25                1               -1  3.31684763E-004  3.99999724E-003  3.99999838E-003  9.86565279E-001 -1.70300772E-005 -1.04621944E-005  4.45326477E-006  2.37499790E+001  0.00000000E+000  3.03049417E+002  4.11340658E-010  1.00122478E-004  1.12679579E+003  1.45527068E-002  1.70180409E-001
  3.33941738E-004               24                1               -1  3.31569436E-004  3.99999824E-003  1.99999703E-003  9.85690240E-001 -1.14306325E-005 -1.81972624E-005  4.45326477E-006  2.32386345E+001  0.00000000E+000  3.03353606E+002  4.11297898E-010  1.00131193E-004  1.17020976E+003  1.08660361E-002  1.77806085E-001
  3.33941738E-004               23                1               -1  3.31527988E-004  3.99999825E-003 -3.36485046E-012  9.85371495E-001 -1.10908739E-005 -1.87280285E-008  4.45326477E-006  2.30710665E+001  0.00000000E+000  3.03465203E+002  4.11282654E-010  1.00134429E-004  1.18614471E+003  9.59633798E-003  1.80521157E-001
  3.33941738E-004               19                1               -1  3.31482112E-004  1.99999585E-003  1.99999779E-003  9.85005776E-001 -2.52463419E-005 -1.35408265E-005  4.45326477E-006  2.28578115E+001  0.00000000E+000  3.03595549E+002  4.11264856E-010  1.00138213E-004  1.20438658E+003  8.17948001E-003  1.83618442E-001
  3.33941738E-004               20                1               -1  3.31569397E-004  1.99999527E-003  3.99999916E-003  9.85690276E-001 -2.88009504E-005 -6.00401921E-006  4.45326477E-006  2.32395297E+001  0.00000000E+000  3.03353680E+002  4.11297880E-010  1.00131194E-004  1.17021242E+003  1.08659276E-002  1.77807106E-001
  3.33941738E-004               18                1               -1  3.31451622E-004  1.99999606E-003 -1.07629206E-013  9.84764079E-001 -2.39746131E-005 -1.57466218E-010  4.45326477E-006  2.27322750E+001  0.00000000E+000  3.03681946E+002  4.11253099E-010  1.00140725E-004  1.21671072E+003  7.26163501E-003  1.85653123E-001
  3.33941738E-004               16                1               -1  3.31569397E-004  1.99999528E-003 -3.99999916E-003  9.85690277E-001 -2.87832355E-005  5.99637229E-006  4.45326477E-006  2.32395331E+001  0.00000000E+000  3.03353680E+002  4.11297880E-010  1.00131194E-004  1.17021239E+003  1.08659291E-002  1.77807102E-001
  3.33941738E-004               17                1               -1  3.31482110E-004  1.99999586E-003 -1.99999779E-003  9.85005762E-001 -2.52306119E-005  1.35333976E-005  4.45326477E-006  2.28577985E+001  0.00000000E+000  3.03595550E+002  4.11264856E-010  1.00138213E-004  1.20438668E+003  8.17947539E-003  1.83618463E-001
  3.33941738E-004               21                1               -1  3.31684761E-004  3.99999724E-003 -3.99999838E-003  9.86565271E-001 -1.70153866E-005  1.04586163E-005  4.45326477E-006  2.37499738E+001  0.00000000E+000  3.03049418E+002  4.11340657E-010  1.00122478E-004  1.12679582E+003  1.45527051E-002  1.70180418E-001
  3.33941738E-004               22                1               -1  3.31569437E-004  3.99999824E-003 -1.99999704E-003  9.85690245E-001 -1.14100805E-005  1.81831030E-005  4.45326477E-006  2.32386475E+001  0.00000000E+000  3.03353606E+002  4.11297898E-010  1.00131193E-004  1.17020973E+003  1.08660372E-002  1.77806080E-001
  3.33941738E-004                6                1               -1  3.31569409E-004 -2.00000001E-003 -3.99999908E-003  9.85690536E-001  6.74659966E-007  6.28873936E-006  4.45326477E-006  2.32404900E+001  0.00000000E+000  3.03353674E+002  4.11297880E-010  1.00131194E-004  1.17021164E+003  1.08658944E-002  1.77807045E-001
  3.33941738E-004               11                1               -1  3.31527789E-004 -2.60694757E-009 -3.99999904E-003  9.85370576E-001 -1.55022618E-005  6.41794339E-006  4.45326477E-006  2.30708776E+001  0.00000000E+000  3.03465357E+002  4.11282617E-010  1.00134433E-004  1.18615180E+003  9.59603066E-003  1.80523375E-001
  3.33941738E-004                1                1               -1  3.31685091E-004 -4.00000009E-003 -3.99999961E-003  9.86567931E-001  6.04347910E-007  3.51653091E-006  4.45326477E-006  2.37561660E+001  0.00000000E+000  3.03049292E+002  4.11340679E-010  1.00122475E-004  1.12678157E+003  1.45532464E-002  1.70178203E-001
  3.33941738E-004               14                1               -1  3.31451605E-004 -2.72932550E-009  1.99999822E-003  9.84764048E-001 -1.63171018E-005 -1.10899019E-005  4.45326477E-006  2.27325154E+001  0.00000000E+000  3.03681978E+002  4.11253090E-010  1.00140726E-004  1.21671078E+003  7.26162715E-003  1.85653513E-001
  3.33941738E-004               15                1               -1  3.31527791E-004 -2.60966145E-009  3.99999904E-003  9.85370586E-001 -1.55187836E-005 -6.41668049E-006  4.45326477E-006  2.30708851E+001  0.00000000E+000  3.03465356E+002  4.11282617E-010  1.00134433E-004  1.18615174E+003  9.59603357E-003  1.80523360E-001
  3.33941738E-004               12                1               -1  3.31451606E-004 -2.72914572E-009 -1.99999822E-003  9.84764050E-001 -1.63164317E-005  1.10975972E-005  4.45326477E-006  2.27325148E+001  0.00000000E+000  3.03681978E+002  4.11253090E-010  1.00140726E-004  1.21671080E+003  7.26162631E-003  1.85653516E-001
  3.33941738E-004               13                1               -1  3.31424625E-004 -2.51079059E-009 -4.94617873E-013  9.84548211E-001 -1.50903109E-005 -3.24393631E-009  4.45326477E-006  2.26211578E+001  0.00000000E+000  3.03759488E+002  4.11242566E-010  1.00142983E-004  1.22771735E+003  6.47570242E-003  1.87438665E-001
  3.33941738E-004                9                1               -1  3.31482280E-004 -2.00000013E-003  1.99999840E-003  9.85007078E-001 -3.55440997E-007 -1.00250788E-005  4.45326477E-006  2.28601591E+001  0.00000000E+000  3.03595478E+002  4.11264869E-010  1.00138211E-004  1.20438011E+003  8.17971451E-003  1.83617273E-001
  3.33941738E-004               10                1               -1  3.31569410E-004 -2.00000001E-003  3.99999908E-003  9.85690540E-001  6.68830044E-007 -6.26236383E-006  4.45326477E-006  2.32404917E+001  0.00000000E+000  3.03353674E+002  4.11297880E-010  1.00131194E-004  1.17021164E+003  1.08658940E-002  1.77807043E-001
  3.33941738E-004                4                1               -1  3.31569541E-004 -3.99999986E-003  1.99999790E-003  9.85691246E-001  1.79335636E-006 -1.31053874E-005  4.45326477E-006  2.32411391E+001  0.00000000E+000  3.03353572E+002  4.11297906E-010  1.00131192E-004  1.17020538E+003  1.08661856E-002  1.77805465E-001
  3.33941738E-004                3                1               -1  3.31528252E-004 -4.00000027E-003  3.94917739E-014  9.85373456E-001 -6.12941634E-007  1.74744415E-010  4.45326477E-006  2.30745779E+001  0.00000000E+000  3.03465063E+002  4.11282682E-010  1.00134426E-004  1.18613088E+003  9.59693557E-003  1.80518708E-001
  3.33941738E-004                5                1               -1  3.31685091E-004 -4.00000010E-003  3.99999961E-003  9.86567934E-001  5.89668965E-007 -3.49056351E-006  4.45326477E-006  2.37561791E+001  0.00000000E+000  3.03049292E+002  4.11340679E-010  1.00122475E-004  1.12678151E+003  1.45532496E-002  1.70178195E-001
  3.33941738E-004                2                1               -1  3.31569542E-004 -3.99999986E-003 -1.99999790E-003  9.85691249E-001  1.79153857E-006  1.31115111E-005  4.45326477E-006  2.32411385E+001  0.00000000E+000  3.03353572E+002  4.11297906E-010  1.00131192E-004  1.17020538E+003  1.08661856E-002  1.77805463E-001
  3.33941738E-004                8                1               -1  3.31451285E-004 -2.00000029E-003 -3.53311593E-013  9.84762067E-001 -1.16325491E-006 -2.12711861E-009  4.45326477E-006  2.27304859E+001  0.00000000E+000  3.03682131E+002  4.11253063E-010  1.00140730E-004  1.21672525E+003  7.26095584E-003  1.85656202E-001
  3.33941738E-004                7                1               -1  3.31482279E-004 -2.00000013E-003 -1.99999839E-003  9.85007073E-001 -3.56040700E-007  1.00409323E-005  4.45326477E-006  2.28601524E+001  0.00000000E+000  3.03595479E+002  4.11264869E-010  1.00138211E-004  1.20438012E+003  8.17971399E-003  1.83617276E-001
  4.45273324E-004               25                1               -1  4.41296868E-004  3.99999505E-003  3.99999700E-003  9.82604909E-001 -2.19290525E-005 -1.41569478E-005  4.45326144E-006  2.58325550E+001  0.00000000E+000  3.04772326E+002  4.10969948E-010  1.00161581E-004  1.14730250E+003  1.54600148E-002  1.90703622E-001
  4.45273324E-004               24                1               -1  4.41059686E-004  3.99999671E-003  1.99999468E-003  9.81287912E-001 -1.55227851E-005 -2.36668370E-005  4.45326144E-006  2.53131589E+001  0.00000000E+000  3.05234099E+002  4.10897189E-010  1.00174293E-004  1.20111805E+003  1.07929323E-002  2.01980416E-001
  4.45273324E-004               23                1               -1  4.40973487E-004  3.99999675E-003 -5.62913618E-012  9.80800605E-001 -1.52337043E-005 -2.17397100E-008  4.45326144E-006  2.51502862E+001  0.00000000E+000  3.05406251E+002  4.10870914E-010  1.00179110E-004  1.22174086E+003  9.15843721E-003  2.06100424E-001
  4.45273324E-004               19                1               -1  4.40875682E-004  1.99999260E-003  1.99999599E-003  9.80231264E-001 -3.25654560E-005 -1.81388996E-005  4.45326144E-006  2.49309515E+001  0.00000000E+000  3.05606460E+002  4.10840297E-010  1.00184713E-004  1.24483206E+003  7.38546995E-003  2.10747029E-001
  4.45273324E-004               20                1               -1  4.41059663E-004  1.99999159E-003  3.99999831E-003  9.81288172E-001 -3.66943337E-005 -9.00833677E-006  4.45326144E-006  2.53143659E+001  0.00000000E+000  3.05234170E+002  4.10897170E-010  1.00174295E-004  1.20112149E+003  1.07927835E-002  2.01981576E-001
  4.45273324E-004               18                1               -1  4.40810805E-004  1.99999296E-003 -1.20237125E-013  9.79853094E-001 -3.10577910E-005 -8.15748972E-011  4.45326144E-006  2.48076769E+001  0.00000000E+000  3.05740825E+002  4.10819771E-010  1.00188478E-004  1.26096338E+003  6.24610757E-003  2.13825925E-001
  4.45273324E-004               16                1               -1  4.41059663E-004  1.99999160E-003 -3.99999831E-003  9.81288174E-001 -3.66736474E-005  8.99976422E-006  4.45326144E-006  2.53143698E+001  0.00000000E+000  3.05234170E+002  4.10897171E-010  1.00174295E-004  1.20112145E+003  1.07927853E-002  2.01981569E-001
  4.45273324E-004               17                1               -1  4.40875678E-004  1.99999260E-003 -1.99999599E-003  9.80231246E-001 -3.25456863E-005  1.81306003E-005  4.45326144E-006  2.49309386E+001  0.00000000E+000  3.05606462E+002  4.10840297E-010  1.00184713E-004  1.24483218E+003  7.38546488E-003  2.10747059E-001
  4.45273324E-004               21                1               -1  4.41296866E-004  3.99999506E-003 -3.99999700E-003  9.82604900E-001 -2.19127512E-005  1.41528119E-005  4.45326144E-006  2.58325534E+001  0.00000000E+000  3.04772327E+002  4.10969947E-010  1.00161581E-004  1.14730253E+003  1.54600136E-002  1.90703632E-001
  4.45273324E-004               22                1               -1  4.41059687E-004  3.99999672E-003 -1.99999468E-003  9.81287921E-001 -1.54996975E-005  2.36504404E-005  4.45326144E-006  2.53131744E+001  0.00000000E+000  3.05234098E+002  4.10897189E-010  1.00174293E-004  1.20111801E+003  1.07929332E-002  2.01980408E-001
  4.45273324E-004               12                1               -1  4.40810790E-004 -4.75495337E-009 -1.99999672E-003  9.79853147E-001 -1.99097960E-005  1.53191598E-005  4.45326144E-006  2.48081268E+001  0.00000000E+000  3.05740854E+002  4.10819761E-010  1.00188478E-004  1.26096441E+003  6.24602691E-003  2.13826411E-001
  4.45273324E-004                6                1               -1  4.41059717E-004 -1.99999981E-003 -3.99999820E-003  9.81288675E-001  2.53280956E-006  9.13989094E-006  4.45326144E-006  2.53157290E+001  0.00000000E+000  3.05234156E+002  4.10897173E-010  1.00174294E-004  1.20112346E+003  1.07924777E-002  2.01981686E-001
  4.45273324E-004               11                1               -1  4.40973183E-004 -4.53000957E-009 -3.99999812E-003  9.80799638E-001 -1.88851336E-005  9.54686254E-006  4.45326144E-006  2.51505168E+001  0.00000000E+000  3.05406427E+002  4.10870870E-010  1.00179114E-004  1.22175023E+003  9.15801000E-003  2.06103353E-001
  4.45273324E-004                2                1               -1  4.41059940E-004 -3.99999953E-003 -1.99999616E-003  9.81289586E-001  3.76634723E-006  1.75407469E-005  4.45326144E-006  2.53164269E+001  0.00000000E+000  3.05234025E+002  4.10897205E-010  1.00174292E-004  1.20111411E+003  1.07929340E-002  2.01979340E-001
  4.45273324E-004                1                1               -1  4.41297571E-004 -3.99999992E-003 -3.99999907E-003  9.82609001E-001  2.47460352E-006  6.04385898E-006  4.45326144E-006  2.58403849E+001  0.00000000E+000  3.04772107E+002  4.10969990E-010  1.00161575E-004  1.14729157E+003  1.54600091E-002  1.90700566E-001
  4.45273324E-004               14                1               -1  4.40810789E-004 -4.75521192E-009  1.99999672E-003  9.79853145E-001 -1.99105572E-005 -1.53100291E-005  4.45326144E-006  2.48081275E+001  0.00000000E+000  3.05740854E+002  4.10819761E-010  1.00188478E-004  1.26096438E+003  6.24602799E-003  2.13826406E-001
  4.45273324E-004               15                1               -1  4.40973186E-004 -4.53477077E-009  3.99999812E-003  9.80799650E-001 -1.89052133E-005 -9.54513607E-006  4.45326144E-006  2.51505234E+001  0.00000000E+000  3.05406426E+002  4.10870871E-010  1.00179114E-004  1.22175015E+003  9.15801303E-003  2.06103333E-001
  4.45273324E-004               13                1               -1  4.40752966E-004 -4.38890483E-009 -8.84005332E-013  9.79512901E-001 -1.85002324E-005 -3.70287133E-009  4.45326144E-006  2.46965438E+001  0.00000000E+000  3.05861528E+002  4.10801403E-010  1.00191868E-004  1.27531276E+003  5.27844973E-003  2.16528912E-001
  4.45273324E-004                9                1               -1  4.40876032E-004 -2.00000006E-003  1.99999703E-003  9.80233239E-001  1.26790757E-006 -1.39969093E-005  4.45326144E-006  2.49337931E+001  0.00000000E+000  3.05606345E+002  4.10840321E-010  1.00184710E-004  1.24482644E+003  7.38553266E-003  2.10745276E-001
  4.45273324E-004               10                1               -1  4.41059718E-004 -1.99999982E-003  3.99999820E-003  9.81288680E-001  2.52643009E-006 -9.10999918E-006  4.45326144E-006  2.53157312E+001  0.00000000E+000  3.05234156E+002  4.10897173E-010  1.00174294E-004  1.20112348E+003  1.07924764E-002  2.01981685E-001
  4.45273324E-004                4                1               -1  4.41059939E-004 -3.99999953E-003  1.99999617E-003  9.81289583E-001  3.76806510E-006 -1.75318026E-005  4.45326144E-006  2.53164271E+001  0.00000000E+000  3.05234025E+002  4.10897205E-010  1.00174292E-004  1.20111411E+003  1.07929343E-002  2.01979342E-001
  4.45273324E-004                3                1               -1  4.40974026E-004 -4.00000021E-003  5.84364173E-014  9.80803574E-001  1.24878621E-006  1.61729054E-010  4.45326144E-006  2.51546328E+001  0.00000000E+000  3.05406027E+002  4.10870960E-010  1.00179105E-004  1.22172453E+003  9.15902646E-003  2.06096544E-001
  4.45273324E-004                5                1               -1  4.41297572E-004 -3.99999992E-003  3.99999908E-003  9.82609006E-001  2.45732036E-006 -6.01449208E-006  4.45326144E-006  2.58403996E+001  0.00000000E+000  3.04772106E+002  4.10969990E-010  1.00161575E-004  1.14729150E+003  1.54600118E-002  1.90700553E-001
  4.45273324E-004                8                1               -1  4.40810213E-004 -2.00000031E-003 -6.14439350E-013  9.79850545E-001  4.09034075E-007 -2.53514155E-009  4.45326144E-006  2.48062027E+001  0.00000000E+000  3.05741078E+002  4.10819719E-010  1.00188484E-004  1.26098178E+003  6.24530580E-003  2.13830421E-001
  4.45273324E-004                7                1               -1  4.40876030E-004 -2.00000006E-003 -1.99999703E-003  9.80233233E-001  1.26786101E-006  1.40160765E-005  4.45326144E-006  2.49337863E+001  0.00000000E+000  3.05606345E+002  4.10840321E-010  1.00184710E-004  1.24482645E+003  7.38553216E-003  2.10745281E-001
