# ALYA Lagrangian postprocess  
#
# HEADER
# T , Column :   1
# ILAGR , Column :   2
# ITYPE , Column :   3
# EXIST , Column :   4
# COORX , Column :   5
# COORY , Column :   6
# COORZ , Column :   7
# VELOX , Column :   8
# VELOY , Column :   9
# VELOZ , Column :  10
# DTK , Column :  11
# CD , Column :  12
# TINJE , Column :  13
# TEMPK , Column :  14
# MASSK , Column :  15
# DIAMK , Column :  16
# TEMPF , Column :  17
# YVAPF , Column :  18
# BM , Column :  19
#               T            ILAGR            ITYPE            EXIST            COORX            COORY            COORZ            VELOX            VELOY            VELOZ              DTK               CD            TINJE            TEMPK            MASSK            DIAMK            TEMPF            YVAPF               BM            
  0.00000000E+000                1                1               -5  0.00000000E+000  0.00000000E+000  0.00000000E+000  0.00000000E+000  0.00000000E+000  0.00000000E+000  7.00000000E-006  0.00000000E+000  0.00000000E+000  2.98150000E+002  3.56858288E-010  1.00000000E-004  0.00000000E+000  0.00000000E+000  0.00000000E+000
  7.00000000E-004                1                1               -1  5.91985440E-019  5.00465803E-019 -6.97492603E-019  2.51775335E-015  2.12023026E-015 -2.91814588E-015  7.00000000E-006  3.75852172E+013  0.00000000E+000  3.10590542E+002  3.55276713E-010  1.00377463E-004  9.73136057E+002  1.87470006E-006  4.30866923E-001
  1.40000000E-003                1                1               -1  4.38073067E-018  3.86089480E-018 -5.47463254E-018  8.97729728E-015  7.98298451E-015 -1.16020438E-014  7.00000000E-006  2.17937240E+013  0.00000000E+000  3.21124632E+002  3.52469310E-010  1.00574559E-004  9.73120653E+002  5.22632236E-006  7.32978627E-001
  2.10000000E-003                1                1               -1  1.44246586E-017  1.25106211E-017 -1.80691466E-017  2.06307478E-014  1.75392193E-014 -2.50710126E-014  7.00000000E-006  1.08162584E+013  0.00000000E+000  3.29497174E+002  3.48082328E-010  1.00534437E-004  9.73103469E+002  1.04651531E-005  1.12250676E+000
  2.80000000E-003                1                1               -1  3.43392654E-017  2.93611552E-017 -4.16262898E-017  3.68595544E-014  3.11733037E-014 -4.31391747E-014  7.00000000E-006  7.98255334E+012  0.00000000E+000  3.35756765E+002  3.41978922E-010  1.00233021E-004  9.73084265E+002  1.77545445E-005  1.56158757E+000
  3.50000000E-003                1                1               -1  6.70867259E-017  5.71197439E-017 -7.94367300E-017  5.73481748E-014  4.88861846E-014 -6.53665851E-014  7.00000000E-006  6.01266892E+012  0.00000000E+000  3.40199897E+002  3.34275564E-010  9.96831123E-005  9.73063110E+002  2.69528401E-005  1.99684509E+000
  4.20000000E-003                1                1               -1  1.15482990E-016  9.84942160E-017 -1.34161241E-016  8.14385861E-014  6.98063719E-014 -9.20456384E-014  7.00000000E-006  5.06472338E+012  0.00000000E+000  3.43226761E+002  3.25263410E-010  9.89219610E-005  9.73040330E+002  3.77075427E-005  2.38065372E+000
  4.90000000E-003                1                1               -1  1.82092596E-016  1.55731882E-016 -2.09584260E-016  1.09521993E-013  9.46373660E-014 -1.24228434E-013  7.00000000E-006  4.26118708E+012  0.00000000E+000  3.45223751E+002  3.15293991E-010  9.79950363E-005  9.73016374E+002  4.95931547E-005  2.68656177E+000
  5.60000000E-003                1                1               -1  2.69592085E-016  2.32073333E-016 -3.09061841E-016  1.41166427E-013  1.24255822E-013 -1.60611758E-013  7.00000000E-006  3.79791040E+012  0.00000000E+000  3.46507825E+002  3.04693543E-010  9.69445908E-005  9.72991686E+002  6.22147573E-005  2.91097633E+000
  6.30000000E-003                1                1               -1  3.80682229E-016  3.30744703E-016 -4.35260122E-016  1.76991672E-013  1.58338185E-013 -2.00584930E-013  7.00000000E-006  3.42437775E+012  0.00000000E+000  3.47315942E+002  2.93723131E-010  9.58045194E-005  9.72966635E+002  7.52563552E-005  3.06520969E+000
  7.00000000E-003                1                1               -1  5.18100677E-016  4.54855783E-016 -5.91360078E-016  2.16243079E-013  1.97002153E-013 -2.46330859E-013  7.00000000E-006  3.09851467E+012  0.00000000E+000  3.47814988E+002  2.82572779E-010  9.45995586E-005  9.72941495E+002  8.84880341E-005  3.16601380E+000
  7.70000000E-003                1                1               -1  6.84621696E-016  6.07468169E-016 -7.81189829E-016  2.60523186E-013  2.39887145E-013 -2.96829722E-013  7.00000000E-006  2.93358147E+012  0.00000000E+000  3.48117839E+002  2.71372158E-010  9.33465676E-005  9.72916459E+002  1.01753049E-004  3.22938974E+000
  8.40000000E-003                1                1               -1  8.84097703E-016  7.91808093E-016 -1.00811322E-015  3.10189519E-013  2.87579701E-013 -3.52487425E-013  7.00000000E-006  2.72730859E+012  0.00000000E+000  3.48298545E+002  2.60206011E-010  9.20564181E-005  9.72891653E+002  1.14949144E-004  3.26801930E+000
  9.10000000E-003                1                1               -1  1.12004172E-015  1.01115065E-015 -1.27566963E-015  3.64780726E-013  3.39892482E-013 -4.12575574E-013  7.00000000E-006  2.65122426E+012  0.00000000E+000  3.48404543E+002  2.49128191E-010  9.07357523E-005  9.72867156E+002  1.28011530E-004  3.29095561E+000
  9.80000000E-003                1                1               -1  1.39592983E-015  1.26879384E-015 -1.58696157E-015  4.24379223E-013  3.97240017E-013 -4.77634037E-013  7.00000000E-006  2.53993277E+012  0.00000000E+000  3.48465616E+002  2.38172390E-010  8.93883536E-005  9.72843020E+002  1.40899883E-004  3.30425076E+000
  1.05000000E-002                1                1               -1  1.71533835E-015  1.56825058E-015 -1.94532707E-015  4.89163458E-013  4.59252480E-013 -5.46999292E-013  7.00000000E-006  2.44556682E+012  0.00000000E+000  3.48500123E+002  2.27359669E-010  8.80161318E-005  9.72819277E+002  1.53589210E-004  3.31177375E+000
  1.12000000E-002                1                1               -1  2.35828113E-015  2.41330892E-015 -2.32230970E-015  3.68875186E-011  6.16325353E-011  5.82692508E-012  7.00000000E-006  7.84995512E+007  0.00000000E+000  3.48519186E+002  2.16703368E-010  8.66197797E-005  9.72795949E+002  1.66063865E-004  3.31591768E+000
  1.19000000E-002                1                1               -1 -2.44925143E-012  4.36586605E-012 -8.17356149E-012 -1.24597715E-008  1.65769994E-008 -3.62909670E-008  7.00000000E-006  3.72371004E+006  0.00000000E+000  3.48529167E+002  2.06207070E-010  8.51984761E-005  9.72773038E+002  1.78319974E-004  3.31806669E+000
  1.26000000E-002                1                1               -1 -2.52231959E-011  2.90294753E-011 -6.91707267E-011 -5.82071158E-008  5.80681222E-008 -1.51166797E-007  7.00000000E-006  1.91965493E+006  0.00000000E+000  3.48534131E+002  1.95878453E-010  8.37517558E-005  9.72750557E+002  1.90348895E-004  3.31911112E+000
  1.33000000E-002                1                1               -1 -9.18236141E-011  9.15444226E-011 -2.38358440E-010 -1.37742579E-007  1.24771796E-007 -3.45546861E-007  7.00000000E-006  1.33524369E+006  0.00000000E+000  3.48536421E+002  1.85724271E-010  8.22788866E-005  9.72728518E+002  2.02143002E-004  3.31956654E+000
  1.40000000E-002                1                1               -1 -2.26037005E-010  2.09661414E-010 -5.71691139E-010 -2.51451967E-007  2.16980723E-007 -6.20302370E-007  7.00000000E-006  1.04952829E+006  0.00000000E+000  3.48537310E+002  1.75749464E-010  8.07787344E-005  9.72706932E+002  2.13696895E-004  3.31971366E+000
  1.47000000E-002                1                1               -1 -4.51923458E-010  4.01339942E-010 -1.12575240E-009 -3.99733554E-007  3.34999636E-007 -9.76358256E-007  7.00000000E-006  8.82621580E+005  0.00000000E+000  3.48537489E+002  1.65958385E-010  7.92499164E-005  9.72685806E+002  2.25005897E-004  3.31970479E+000
  1.54000000E-002                1                1               -1 -7.93828698E-010  6.84758167E-010 -1.95779114E-009 -5.83005809E-007  4.79148954E-007 -1.41469091E-006  7.00000000E-006  7.75240219E+005  0.00000000E+000  3.48537322E+002  1.56355193E-010  7.76908394E-005  9.72665148E+002  2.36065573E-004  3.31962085E+000
  1.61000000E-002                1                1               -1 -1.27639934E-009  1.07832461E-009 -3.12575870E-009 -8.01710348E-007  6.49766741E-007 -1.93633150E-006  7.00000000E-006  7.02199612E+005  0.00000000E+000  3.48537001E+002  1.46944054E-010  7.60997065E-005  9.72644968E+002  2.46871491E-004  3.31950376E+000
  1.68000000E-002                1                1               -1 -1.92459993E-009  1.60069115E-009 -4.68834879E-009 -1.05631438E-006  8.47210520E-007 -2.54237099E-006  7.00000000E-006  6.51034039E+005  0.00000000E+000  3.48536621E+002  1.37729258E-010  7.44745060E-005  9.72625272E+002  2.57419084E-004  3.31937461E+000
  1.75000000E-002                1                1               -1 -2.76373182E-009  2.27076730E-009 -6.70504153E-009 -1.34731339E-006  1.07185929E-006 -3.23396626E-006  7.00000000E-006  6.14922757E+005  0.00000000E+000  3.48536227E+002  1.28715290E-010  7.28129887E-005  9.72606070E+002  2.67703557E-004  3.31924359E+000
  1.82000000E-002                1                1               -1 -3.81945392E-009  3.10773608E-009 -9.23615192E-009 -1.67523416E-006  1.32411581E-006 -4.01234716E-006  7.00000000E-006  5.89878626E+005  0.00000000E+000  3.48535841E+002  1.19906888E-010  7.11126353E-005  9.72587372E+002  2.77719823E-004  3.31911544E+000
  1.89000000E-002                1                1               -1 -5.11780589E-009  4.13107149E-009 -1.23428837E-008 -2.04063829E-006  1.60440929E-006 -4.87882465E-006  7.00000000E-006  5.73480657E+005  0.00000000E+000  3.48535472E+002  1.11309091E-010  6.93706125E-005  9.72569187E+002  2.87462444E-004  3.31899223E+000
  1.96000000E-002                1                1               -1 -6.68523388E-009  5.36055815E-009 -1.60873896E-008 -2.44412636E-006  1.91319847E-006 -5.83480043E-006  7.00000000E-006  5.64249764E+005  0.00000000E+000  3.48535124E+002  1.02927289E-010  6.75837192E-005  9.72551527E+002  2.96925571E-004  3.31887477E+000
  2.03000000E-002                1                1               -1 -8.54861946E-009  6.81631318E-009 -2.05328383E-008 -2.88634270E-006  2.25097529E-006 -6.88177815E-006  7.00000000E-006  5.61323571E+005  0.00000000E+000  3.48534798E+002  9.47672765E-011  6.57483170E-005  9.72534404E+002  3.06102885E-004  3.31876337E+000
  2.10000000E-002                1                1               -1 -1.07353122E-008  8.51881090E-009 -2.57434906E-008 -3.36798116E-006  2.61826923E-006 -8.02137675E-006  7.00000000E-006  5.64284658E+005  0.00000000E+000  3.48534494E+002  8.68353123E-011  6.38602429E-005  9.72517829E+002  3.14987520E-004  3.31865811E+000
  2.17000000E-002                1                1               -1 -1.32731666E-008  1.04889109E-008 -3.17847856E-008 -3.88979199E-006  3.01565246E-006 -9.25534644E-006  7.00000000E-006  5.73076662E+005  0.00000000E+000  3.48534212E+002  7.91381935E-011  6.19146982E-005  9.72501817E+002  3.23571982E-004  3.31855902E+000
  2.24000000E-002                1                1               -1 -1.61905846E-008  1.27478900E-008 -3.87234389E-008 -4.45259012E-006  3.44374618E-006 -1.05855880E-005  7.00000000E-006  5.87978871E+005  0.00000000E+000  3.48533952E+002  7.16833415E-011  5.99061038E-005  9.72486384E+002  3.31848042E-004  3.31846611E+000
  2.31000000E-002                1                1               -1 -1.95165639E-008  1.53174794E-008 -4.66275560E-008 -5.05726536E-006  3.90322826E-006 -1.20141765E-005  7.00000000E-006  6.09629145E+005  0.00000000E+000  3.48533714E+002  6.44789101E-011  5.78279113E-005  9.72471547E+002  3.39806610E-004  3.31837944E+000
  2.38000000E-002                1                1               -1 -2.32807551E-008  1.82199069E-008 -5.55667646E-008 -5.70479503E-006  4.39484279E-006 -1.35433907E-005  7.00000000E-006  6.39098507E+005  0.00000000E+000  3.48533499E+002  5.75339189E-011  5.56723495E-005  9.72457324E+002  3.47437578E-004  3.31829910E+000
  2.45000000E-002                1                1               -1 -2.75135281E-008  2.14779484E-008 -6.56123691E-008 -6.39625987E-006  4.91941213E-006 -1.51757497E-005  7.00000000E-006  6.78034736E+005  0.00000000E+000  3.48533307E+002  5.08584232E-011  5.34300795E-005  9.72443736E+002  3.54729618E-004  3.31822524E+000
  2.52000000E-002                1                1               -1 -3.22460509E-008  2.51149866E-008 -7.68375349E-008 -7.13286439E-006  5.47785220E-006 -1.69140609E-005  7.00000000E-006  7.28913176E+005  0.00000000E+000  3.48533138E+002  4.44637339E-011  5.10897131E-005  9.72430808E+002  3.61669922E-004  3.31815801E+000
  2.59000000E-002                1                1               -1 -3.75103860E-008  2.91550842E-008 -8.93175111E-008 -7.91596345E-006  6.07119266E-006 -1.87614813E-005  7.00000000E-006  7.95471370E+005  0.00000000E+000  3.48532993E+002  3.83627079E-011  4.86371227E-005  9.72418566E+002  3.68243855E-004  3.31809767E+000
  2.66000000E-002                1                1               -1 -4.33396068E-008  3.36230719E-008 -1.03129902E-007 -8.74709790E-006  6.70060372E-006 -2.07216002E-005  7.00000000E-006  8.83482882E+005  0.00000000E+000  3.48532873E+002  3.25701413E-011  4.60544195E-005  9.72407043E+002  3.74434493E-004  3.31804451E+000
  2.73000000E-002                1                1               -1 -4.97679439E-008  3.85446590E-008 -1.18355009E-007 -9.62804344E-006  7.36743307E-006 -2.27985533E-005  7.00000000E-006  1.00220246E+006  0.00000000E+000  3.48532780E+002  2.71033183E-011  4.33183827E-005  9.72396276E+002  3.80221967E-004  3.31799891E+000
  2.80000000E-002                1                1               -1 -5.68309730E-008  4.39465753E-008 -1.35076262E-007 -1.05608802E-005  8.07325845E-006 -2.49971842E-005  7.00000000E-006  1.16724680E+006  0.00000000E+000  3.48532715E+002  2.19828054E-011  4.03979291E-005  9.72386309E+002  3.85582523E-004  3.31796137E+000
  2.87000000E-002                1                1               -1 -6.45658610E-008  4.98567571E-008 -1.53380801E-007 -1.15480960E-005  8.81996552E-006 -2.73232840E-005  7.00000000E-006  1.40684773E+006  0.00000000E+000  3.48532680E+002  1.72336528E-011  3.72497907E-005  9.72377197E+002  3.90487092E-004  3.31793253E+000
  2.94000000E-002                1                1               -1 -7.30117035E-008  5.63046021E-008 -1.73360250E-007 -1.25927479E-005  9.60986985E-006 -2.97839674E-005  7.00000000E-006  1.77704122E+006  0.00000000E+000  3.48532680E+002  1.28873202E-011  3.38105521E-005  9.72369008E+002  3.94899004E-004  3.31791326E+000
  3.01000000E-002                1                1               -1 -8.22100100E-008  6.33213357E-008 -1.95111852E-007 -1.36987340E-005  1.04459221E-005 -3.23883036E-005  7.00000000E-006  2.40472395E+006  0.00000000E+000  3.48532719E+002  8.98501101E-012  2.99804124E-005  9.72361832E+002  3.98770026E-004  3.31790479E+000
  3.08000000E-002                1                1               -1 -9.22054492E-008  7.09405738E-008 -2.18740201E-007 -1.48712984E-005  1.13320892E-005 -3.51484904E-005  7.00000000E-006  3.64089461E+006  0.00000000E+000  3.48532803E+002  5.58411553E-012  2.55848504E-005  9.72355796E+002  4.02032710E-004  3.31790904E+000
  3.15000000E-002                1                1               -1 -1.03047119E-007  7.91992820E-008 -2.44360188E-007 -1.61181251E-005  1.22741796E-005 -3.80823930E-005  7.00000000E-006  6.85863751E+006  0.00000000E+000  3.48532946E+002  2.77297800E-012  2.02603490E-005  9.72351096E+002  4.04582875E-004  3.31792931E+000
